<?xml version="1.0" encoding="UTF-8"?>
<svg width="32px" height="32px" viewBox="0 0 32 32" version="1.1" xmlns="http://www.w3.org/2000/svg" xmlns:xlink="http://www.w3.org/1999/xlink" style="background: #000000;">
    <g stroke="none" stroke-width="1" fill="none" fill-rule="evenodd">
        <rect fill="#000000" x="0" y="0" width="32" height="32"></rect>
        <circle id="Oval" stroke="#FFFFFF" stroke-width="2" fill="#FFFFFF" cx="16" cy="16" r="15"></circle>
        <rect id="Rectangle" stroke="#000000" stroke-width="2" stroke-linejoin="round" x="11" y="9" width="10" height="14"></rect>
        <circle id="Oval" fill="#000000" cx="16" cy="19" r="1"></circle>
    </g>
</svg>
