<?xml version="1.0" encoding="UTF-8"?>
<svg width="18px" height="18px" viewBox="0 0 18 18" version="1.1" xmlns="http://www.w3.org/2000/svg" xmlns:xlink="http://www.w3.org/1999/xlink">
    <g id="Icon-/-New_Password" stroke="none" stroke-width="1" fill="none" fill-rule="evenodd">
        <rect id="Rectangle" stroke="#000000" stroke-width="2" stroke-linejoin="round" x="2" y="8" width="14" height="9"></rect>
        <path d="M13,8 C13,7.42016079 13,6.42016079 13,5 C13,2.86975882 11.1302412,1 9,1 C6.86975882,1 5,2.72690168 5,4.85714286 C5,6.27730364 5,7.32492269 5,8" id="Oval" stroke="#000000" stroke-width="2"></path>
    </g>
</svg>