<?xml version="1.0" encoding="UTF-8"?>
<svg width="32px" height="32px" viewBox="0 0 32 32" version="1.1" xmlns="http://www.w3.org/2000/svg" xmlns:xlink="http://www.w3.org/1999/xlink">
    <g id="Icon-/-32-px-/-Round-/-Menu-/-Inactive" stroke="none" stroke-width="1" fill="none" fill-rule="evenodd">
        <circle id="Oval" stroke="#000000" stroke-width="2" cx="16" cy="16" r="15"></circle>
        <circle id="Oval" fill="#000000" cx="16" cy="22" r="2"></circle>
        <circle id="Oval-Copy" fill="#000000" cx="16" cy="16" r="2"></circle>
        <circle id="Oval-Copy-2" fill="#000000" cx="16" cy="10" r="2"></circle>
    </g>
</svg>