<?xml version="1.0" encoding="UTF-8"?>
<svg width="32px" height="32px" viewBox="0 0 32 32" version="1.1" xmlns="http://www.w3.org/2000/svg" xmlns:xlink="http://www.w3.org/1999/xlink">
    <g id="Button-/-round-/-Profil" stroke="none" stroke-width="1" fill="none" fill-rule="evenodd">
        <circle id="Oval" stroke="#000000" stroke-width="2" cx="16" cy="16" r="15"></circle>
        <circle id="Oval" stroke="#000000" stroke-width="2" cx="16" cy="14" r="3"></circle>
        <path d="M21,22 C21,19.2385763 18.7614237,17 16,17 C13.2385763,17 11,19.2385763 11,22" id="Oval-Copy" stroke="#000000" stroke-width="2"></path>
    </g>
</svg>