{
    "CN": "Dev Health Department",
    "key": {
        "algo": "rsa",
        "size": 4096
    },
    "names": [
        {
            "C": "DE",
            "ST": "Berlin",
            "L": "Berlin",
            "O": "luca Dev"
        }
    ],
    "serialnumber": "CSM000000001"
}
